Simulate datasets — sim_classification • modeldata
…
Hooker, G. (2004, August). Discovering additive structure in black box
functions. In Proceedings of the tenth ACM SIGKDD international conference
on Knowledge discovery and data mining (pp. 575-580).
DOI: 10.1145/1014052.1014122

Sorokina, D., Caruana, R., Riedewald, M., & Fink, D. (2008, July). Detecting
statistical interactions with additive groves of trees. In Proceedings of
the 25th international conference on Machine learning (pp. 1000-1007).
DOI: 10.1145/1390156.1390282

    Examples

set.seed(1)
sim_regression(100)
#> # A tibble: 100 × 21
#>    outcome predictor_01 predictor_02 predictor_03 predictor_04
#>      <dbl>        <dbl>        <dbl>        <dbl>        <dbl>
#>  1    8.49       -1.88        -1.86        1.23          2.68 
#>  2   19.3         0.551        0.126       5.07         -3.14 
#>  3   57.7        -2.51        -2.73        4.76          5.91 
#>  4   -8.41        4.79         0.474      -0.993        -1.15 
#>  5   43.0         0.989       -1.96       -6.86          4.96 
#>  6   72.3        -2.46         5.30        7.49          4.54 
#>  7   -3.36        1.46         2.15        2.00          0.249
#>  8   -3.82        2.21         2.73        1.62          1.70 
#>  9   22.7         1.73         1.15       -0.0402       -3.07 
#> 10   25.7        -0.916        5.05        1.53          0.969
#> # ℹ 90 more rows
#> # ℹ 16 more variables: predictor_05 <dbl>, predictor_06 <dbl>,
#> #   predictor_07 <dbl>, predictor_08 <dbl>, predictor_09 <dbl>,
#> #   predictor_10 <dbl>, predictor_11 <dbl>, predictor_12 <dbl>,
#> #   predictor_13 <dbl>, predictor_14 <dbl>, predictor_15 <dbl>,
#> #   predictor_16 <dbl>, predictor_17 <dbl>, predictor_18 <dbl>,
#> #   predictor_19 <dbl>, predictor_20 <dbl>
sim_classification(100)
#> # A tibble: 100 × 16
#>    class  two_factor_1 two_factor_2 non_linear_1 non_linear_2 non_linear_3
#>    <fct>         <dbl>        <dbl>        <dbl>        <dbl>        <dbl>
#>  1 class…      -2.27        -1.18         -0.245       0.888        0.354 
#>  2 class…      -0.537        0.420         0.621       0.170        0.374 
#>  3 class…       3.23         2.39          0.163       0.957        0.840 
#>  4 class…       3.42         0.236         0.110       0.788        0.134 
#>  5 class…       0.571       -0.100        -0.487       0.377        0.541 
#>  6 class…      -1.61        -0.0701        0.393       0.789        0.515 
#>  7 class…       2.74         2.51         -0.751       0.459        0.931 
#>  8 class…       0.0763      -0.679         0.307       0.220        0.771 
#>  9 class…       0.0591      -2.35          0.402       0.566        0.712 
#> 10 class…      -1.39        -2.10         -0.887       0.0154       0.0784
#> # ℹ 90 more rows
#> # ℹ 10 more variables: linear_01 <dbl>, linear_02 <dbl>, linear_03 <dbl>,
#> #   linear_04 <dbl>, linear_05 <dbl>, linear_06 <dbl>, linear_07 <dbl>,
#> #   linear_08 <dbl>, linear_09 <dbl>, linear_10 <dbl>
…
